(;
FF[4] GM[150] PW[2f1cafc] PB[Seatpin] GN[BGA #80642383]
DT[2020-04-28]
;W[wG3]
(;B[bG1 \\wG3]
;W[wQ /wG3]
;B[bQ \\bG1]
;W[wA1 wG3\\]
;B[bG2 \\bQ]
;W[wA1 bG1/]
;B[bA1 -bG2]
;W[wG2 wG3\\]
;B[bA1 wA1-]
;W[wG2 \\bG2]
;B[bA2 -bG1]
;W[wA3 wG3\\]
;B[bA2 wA3-]
;W[wA2 /wA3]
;B[bA1 /wA2]
;W[wB1 wA1/]
;B[bS1 /bA1]
;W[wB1 \\wA1]
;B[bQ /bG2]
;W[wG2 -wA1]
;B[bS1 -wQ]
;W[wB1 bG2]
;B[bB1 /bS1]
;W[wA1 /bB1]
;B[bG3 \\bS1]
;W[wS1 wG2/]
;B[bA1 wA2\\]
;W[wS1 \\bA2]
;B[bG3 -wA2]
;W[wA1 \\bS1]
;B[bB1 bS1]
;W[wB1 bQ]
;B[bB1 -wG3])

(;B[bS1 \\wG3])

)
